{
  "columns": [
    {
      "name": "ID",
      "type": "int",
      "isPrimaryKey": true,
      "foreignTables": [
        {
          "filePath": "C:\\Users\\User\\Desktop\\Моё\\Программы\\DummyDatabase.Desktop\\DummyDatabase.Desktop\\Readers.csv",
          "columnName": "ID взятой книги"
        }
      ],
      "isForeignKey": false,
      "primaryTable": null
    },
    {
      "name": "Автор",
      "type": "string",
      "isPrimaryKey": false,
      "foreignTables": null,
      "isForeignKey": false,
      "primaryTable": null
    },
    {
      "name": "Название",
      "type": "string",
      "isPrimaryKey": false,
      "foreignTables": null,
      "isForeignKey": false,
      "primaryTable": null
    },
    {
      "name": "Год публикации",
      "type": "date",
      "isPrimaryKey": false,
      "foreignTables": null,
      "isForeignKey": false,
      "primaryTable": null
    },
    {
      "name": "Номер отдела",
      "type": "int",
      "isPrimaryKey": false,
      "foreignTables": null,
      "isForeignKey": false,
      "primaryTable": null
    },
    {
      "name": "Номер полки",
      "type": "int",
      "isPrimaryKey": false,
      "foreignTables": null,
      "isForeignKey": false,
      "primaryTable": null
    },
    {
      "name": "Наличие в библиотеке",
      "type": "bool",
      "isPrimaryKey": false,
      "foreignTables": null,
      "isForeignKey": false,
      "primaryTable": null
    }
  ],
  "databasePath": "C:\\Users\\User\\Desktop\\Моё\\Программы\\DummyDatabase.Desktop\\DummyDatabase.Desktop"
}